src/wave.vcd
$date
	Sat Nov  1 16:58:00 2025
$end
$version
	QuestaSim Version 10.6c
$end
$timescale
	1ns
$end

$scope module top $end
$var reg 1 ! clk_50MHz $end

$scope begin setting_vif $end
$upscope $end

$scope begin initial_reset $end
$upscope $end

$scope begin test_run $end
$upscope $end

$scope module DUT $end
$var wire 1 " clk_50MHz $end
$var wire 1 # reset $end
$var wire 1 $ signal_out [2] $end
$var wire 1 % signal_out [1] $end
$var wire 1 & signal_out [0] $end
$var reg 8 ' wave_out [7:0] $end
$var reg 5 ( addr [4:0] $end
$var integer 32 ) i $end

$scope begin Sine $end
$upscope $end

$scope begin Cosine $end
$upscope $end

$scope begin Triangular $end
$upscope $end

$scope begin Sinc $end
$upscope $end

$scope begin Sawtooth $end
$upscope $end

$scope begin Square $end
$upscope $end

$scope begin Gaussian_chirplet $end
$upscope $end

$scope begin ECG $end
$upscope $end
$upscope $end
$upscope $end
$enddefinitions $end
#0
$dumpvars
0!
bx '
bx (
bx )
0"
x#
x&
x%
x$
$end
#10
1!
1"
b0 )
b1 )
b10 )
b11 )
b100 )
b101 )
b110 )
b111 )
b1000 )
b1001 )
b1010 )
b1011 )
b1100 )
b1101 )
b1110 )
b1111 )
b10000 )
b10001 )
b10010 )
b10011 )
b10100 )
b10101 )
b10110 )
b10111 )
b11000 )
b11001 )
b11010 )
b11011 )
b11100 )
b11101 )
b11110 )
b11111 )
b100000 )
0#
b0 )
b1 )
b10 )
b11 )
b100 )
b101 )
b110 )
b111 )
b1000 )
b1001 )
b1010 )
b1011 )
b1100 )
b1101 )
b1110 )
b1111 )
b10000 )
b10001 )
b10010 )
b10011 )
b10100 )
b10101 )
b10110 )
b10111 )
b11000 )
b11001 )
b11010 )
b11011 )
b11100 )
b11101 )
b11110 )
b11111 )
b100000 )
b0 (
b0 '
#20
0!
0"
#30
1!
1"
b0 )
b1 )
b10 )
b11 )
b100 )
b101 )
b110 )
b111 )
b1000 )
b1001 )
b1010 )
b1011 )
b1100 )
b1101 )
b1110 )
b1111 )
b10000 )
b10001 )
b10010 )
b10011 )
b10100 )
b10101 )
b10110 )
b10111 )
b11000 )
b11001 )
b11010 )
b11011 )
b11100 )
b11101 )
b11110 )
b11111 )
b100000 )
1#
1&
1%
0$
#40
0!
0"
#50
1!
1"
b1 (
#60
0!
0"
#70
1!
1"
b10 (
b10000010 '
#80
0!
0"
#90
1!
1"
b11 (
b10001010 '
#100
0!
0"
#110
1!
1"
b100 (
b10001111 '
#120
0!
0"
#130
1!
1"
b101 (
#140
0!
0"
#150
1!
1"
b110 (
b10001001 '
#160
0!
0"
#170
1!
1"
b111 (
b1111101 '
#180
0!
0"
#190
1!
1"
b1000 (
b1110000 '
#200
0!
0"
#210
1!
1"
b1001 (
b1100110 '
#220
0!
0"
#230
1!
1"
b1010 (
b1100100 '
#240
0!
0"
#250
1!
1"
b1011 (
b1101101 '
#260
0!
0"
#270
1!
1"
b1100 (
b10000010 '
#280
0!
0"
#290
1!
1"
b1101 (
b10100000 '
#300
0!
0"
#310
1!
1"
b1110 (
b11000010 '
#320
0!
0"
#330
1!
1"
b1111 (
b11100001 '
#340
0!
0"
#350
1!
1"
b10000 (
b11110111 '
#360
0!
0"
#370
1!
1"
b10001 (
b11111111 '
#380
0!
0"
#390
1!
1"
b10010 (
b11110111 '
#400
0!
0"
#410
1!
1"
b10011 (
b11100001 '
#420
0!
0"
#430
1!
1"
b10100 (
b11000010 '
#440
0!
0"
#450
1!
1"
b10101 (
b10100000 '
#460
0!
0"
#470
1!
1"
b10110 (
b10000010 '
#480
0!
0"
#490
1!
1"
b10111 (
b1101101 '
#500
0!
0"
#510
1!
1"
b11000 (
b1100100 '
#520
0!
0"
#530
1!
1"
b11001 (
b1100110 '
#540
0!
0"
#550
1!
1"
b11010 (
b1110000 '
#560
0!
0"
#570
1!
1"
b11011 (
b1111101 '
#580
0!
0"
#590
1!
1"
b11100 (
b10001001 '
#600
0!
0"
#610
1!
1"
b11101 (
b10001111 '
#620
0!
0"
#630
1!
1"
b11110 (
#640
0!
0"
#650
1!
1"
b11111 (
b10001010 '
#660
0!
0"
#670
1!
1"
b0 (
b10000010 '
0%
#680
0!
0"
#690
1!
1"
b1 (
b1111010 '
#700
0!
0"
#710
1!
1"
b10 (
b11111101 '
#720
0!
0"
#730
1!
1"
b11 (
b11110101 '
#740
0!
0"
#750
1!
1"
b100 (
b11101010 '
#760
0!
0"
#770
1!
1"
b101 (
b11011010 '
#780
0!
0"
#790
1!
1"
b110 (
b11000110 '
#800
0!
0"
#810
1!
1"
b111 (
b10110000 '
#820
0!
0"
#830
1!
1"
b1000 (
b10011000 '
#840
0!
0"
#850
1!
1"
b1001 (
b10000000 '
#860
0!
0"
#870
1!
1"
b1010 (
b1100111 '
#880
0!
0"
#890
1!
1"
b1011 (
b1001111 '
#900
0!
0"
#910
1!
1"
b1100 (
b111001 '
#920
0!
0"
#930
1!
1"
b1101 (
b100101 '
#940
0!
0"
#950
1!
1"
b1110 (
b10101 '
#960
0!
0"
#970
1!
1"
b1111 (
b1010 '
#980
0!
0"
#990
1!
1"
b10000 (
b10 '
#1000
0!
0"
#1010
1!
1"
b10001 (
b0 '
#1020
0!
0"
#1030
1!
1"
b10010 (
b10 '
#1040
0!
0"
#1050
1!
1"
b10011 (
b1010 '
#1060
0!
0"
#1070
1!
1"
b10100 (
b10101 '
#1080
0!
0"
#1090
1!
1"
b10101 (
b100101 '
#1100
0!
0"
#1110
1!
1"
b10110 (
b111001 '
#1120
0!
0"
#1130
1!
1"
b10111 (
b1001111 '
#1140
0!
0"
#1150
1!
1"
b11000 (
b1100111 '
#1160
0!
0"
#1170
1!
1"
b11001 (
b1111111 '
#1180
0!
0"
#1190
1!
1"
b11010 (
b10011000 '
#1200
0!
0"
#1210
1!
1"
b11011 (
b10110000 '
#1220
0!
0"
#1230
1!
1"
b11100 (
b11000110 '
#1240
0!
0"
#1250
1!
1"
b11101 (
b11011010 '
#1260
0!
0"
#1270
1!
1"
b11110 (
b11101010 '
#1280
0!
0"
#1290
1!
1"
b11111 (
b11110101 '
#1300
0!
0"
#1310
1!
1"
b0 (
b11111101 '
1%
1$
#1320
0!
0"
#1330
1!
1"
b1 (
b11111111 '
#1340
0!
0"
#1350
1!
1"
b10 (
b1001001 '
#1360
0!
0"
#1370
1!
1"
b11 (
b1001100 '
#1380
0!
0"
#1390
1!
1"
b100 (
b1010011 '
#1400
0!
0"
#1410
1!
1"
b101 (
b1011000 '
#1420
0!
0"
#1430
1!
1"
b110 (
b1010011 '
#1440
0!
0"
#1450
1!
1"
b111 (
b1001100 '
#1460
0!
0"
#1470
1!
1"
b1000 (
b1001001 '
#1480
0!
0"
#1490
1!
1"
b1001 (
b1001000 '
#1500
0!
0"
#1510
1!
1"
b1010 (
b111011 '
#1520
0!
0"
#1530
1!
1"
b1011 (
b11111111 '
#1540
0!
0"
#1550
1!
1"
b1100 (
b0 '
#1560
0!
0"
#1570
1!
1"
b1101 (
b1001000 '
#1580
0!
0"
#1590
1!
1"
b1110 (
#1600
0!
0"
#1610
1!
1"
b1111 (
b1001001 '
#1620
0!
0"
#1630
1!
1"
b10000 (
b1001100 '
#1640
0!
0"
#1650
1!
1"
b10001 (
b1010011 '
#1660
0!
0"
#1670
1!
1"
b10010 (
b1011111 '
#1680
0!
0"
#1690
1!
1"
b10011 (
b1101111 '
#1700
0!
0"
#1710
1!
1"
b10100 (
b1111101 '
#1720
0!
0"
#1730
1!
1"
b10101 (
b10000011 '
#1740
0!
0"
#1750
1!
1"
b10110 (
b1111101 '
#1760
0!
0"
#1770
1!
1"
b10111 (
b1101111 '
#1780
0!
0"
#1790
1!
1"
b11000 (
b1011111 '
#1800
0!
0"
#1810
1!
1"
b11001 (
b1010011 '
#1820
0!
0"
#1830
1!
1"
b11010 (
b1001100 '
#1840
0!
0"
#1850
1!
1"
b11011 (
b1001001 '
#1860
0!
0"
#1870
1!
1"
b11100 (
b1001000 '
#1880
0!
0"
#1890
1!
1"
b11101 (
#1900
0!
0"
#1910
1!
1"
b11110 (
#1920
0!
0"
#1930
1!
1"
b11111 (
#1940
0!
0"
#1950
1!
1"
b0 (
0&
0$
#1960
0!
0"
#1970
1!
1"
b1 (
#1980
0!
0"
#1990
1!
1"
b10 (
b10000 '
#2000
0!
0"
#2010
1!
1"
b11 (
b100000 '
#2020
0!
0"
#2030
1!
1"
b100 (
b110000 '
#2040
0!
0"
#2050
1!
1"
b101 (
b1000000 '
#2060
0!
0"
#2070
1!
1"
b110 (
b1010000 '
#2080
0!
0"
#2090
1!
1"
b111 (
b1100000 '
#2100
0!
0"
#2110
1!
1"
b1000 (
b1110000 '
#2120
0!
0"
#2130
1!
1"
b1001 (
b10000000 '
#2140
0!
0"
#2150
1!
1"
b1010 (
b10001111 '
#2160
0!
0"
#2170
1!
1"
b1011 (
b10011111 '
#2180
0!
0"
#2190
1!
1"
b1100 (
b10101111 '
#2200
0!
0"
#2210
1!
1"
b1101 (
b10111111 '
#2220
0!
0"
#2230
1!
1"
b1110 (
b11001111 '
#2240
0!
0"
#2250
1!
1"
b1111 (
b11011111 '
#2260
0!
0"
#2270
1!
1"
b10000 (
b11101111 '
#2280
0!
0"
#2290
1!
1"
b10001 (
b11111111 '
#2300
0!
0"
#2310
1!
1"
b10010 (
b11101111 '
#2320
0!
0"
#2330
1!
1"
b10011 (
b11011111 '
#2340
0!
0"
#2350
1!
1"
b10100 (
b11001111 '
#2360
0!
0"
#2370
1!
1"
b10101 (
b10111111 '
#2380
0!
0"
#2390
1!
1"
b10110 (
b10101111 '
#2400
0!
0"
#2410
1!
1"
b10111 (
b10011111 '
#2420
0!
0"
#2430
1!
1"
b11000 (
b10001111 '
#2440
0!
0"
#2450
1!
1"
b11001 (
b10000000 '
#2460
0!
0"
#2470
1!
1"
b11010 (
b1110000 '
#2480
0!
0"
#2490
1!
1"
b11011 (
b1100000 '
#2500
0!
0"
#2510
1!
1"
b11100 (
b1010000 '
#2520
0!
0"
#2530
1!
1"
b11101 (
b1000000 '
#2540
0!
0"
#2550
1!
1"
b11110 (
b110000 '
#2560
0!
0"
#2570
1!
1"
b11111 (
b100000 '
#2580
0!
0"
#2590
1!
1"
b0 (
b10000 '
1&
0%
1$
#2600
0!
0"
#2610
1!
1"
b1 (
b0 '
#2620
0!
0"
#2630
1!
1"
b10 (
b11111111 '
#2640
0!
0"
#2650
1!
1"
b11 (
#2660
0!
0"
#2670
1!
1"
b100 (
#2680
0!
0"
#2690
1!
1"
b101 (
#2700
0!
0"
#2710
1!
1"
b110 (
#2720
0!
0"
#2730
1!
1"
b111 (
#2740
0!
0"
#2750
1!
1"
b1000 (
#2760
0!
0"
#2770
1!
1"
b1001 (
#2780
0!
0"
#2790
1!
1"
b1010 (
#2800
0!
0"
#2810
1!
1"
b1011 (
#2820
0!
0"
#2830
1!
1"
b1100 (
#2840
0!
0"
#2850
1!
1"
b1101 (
#2860
0!
0"
#2870
1!
1"
b1110 (
#2880
0!
0"
#2890
1!
1"
b1111 (
#2900
0!
0"
#2910
1!
1"
b10000 (
#2920
0!
0"
#2930
1!
1"
b10001 (
b0 '
#2940
0!
0"
#2950
1!
1"
b10010 (
#2960
0!
0"
#2970
1!
1"
b10011 (
#2980
0!
0"
#2990
1!
1"
b10100 (
#3000
0!
0"
#3010
1!
1"
b10101 (
#3020
0!
0"
#3030
1!
1"
b10110 (
#3040
0!
0"
#3050
1!
1"
b10111 (
#3060
0!
0"
#3070
1!
1"
b11000 (
#3080
0!
0"
#3090
1!
1"
b11001 (
#3100
0!
0"
#3110
1!
1"
b11010 (
#3120
0!
0"
#3130
1!
1"
b11011 (
#3140
0!
0"
#3150
1!
1"
b11100 (
#3160
0!
0"
#3170
1!
1"
b11101 (
#3180
0!
0"
#3190
1!
1"
b11110 (
#3200
0!
0"
#3210
1!
1"
b11111 (
#3220
0!
0"
#3230
1!
1"
b0 (
0&
0$
#3240
0!
0"
#3250
1!
1"
b1 (
b11111111 '
#3260
0!
0"
#3270
1!
1"
b10 (
b10011000 '
#3280
0!
0"
#3290
1!
1"
b11 (
b10110000 '
#3300
0!
0"
#3310
1!
1"
b100 (
b11000110 '
#3320
0!
0"
#3330
1!
1"
b101 (
b11011010 '
#3340
0!
0"
#3350
1!
1"
b110 (
b11101010 '
#3360
0!
0"
#3370
1!
1"
b111 (
b11110101 '
#3380
0!
0"
#3390
1!
1"
b1000 (
b11111101 '
#3400
0!
0"
#3410
1!
1"
b1001 (
b11111111 '
#3420
0!
0"
#3430
1!
1"
b1010 (
b11111101 '
#3440
0!
0"
#3450
1!
1"
b1011 (
b11110101 '
#3460
0!
0"
#3470
1!
1"
b1100 (
b11101010 '
#3480
0!
0"
#3490
1!
1"
b1101 (
b11011010 '
#3500
0!
0"
#3510
1!
1"
b1110 (
b11000110 '
#3520
0!
0"
#3530
1!
1"
b1111 (
b10110000 '
#3540
0!
0"
#3550
1!
1"
b10000 (
b10011000 '
#3560
0!
0"
#3570
1!
1"
b10001 (
b10000000 '
#3580
0!
0"
#3590
1!
1"
b10010 (
b1100111 '
#3600
0!
0"
#3610
1!
1"
b10011 (
b1001111 '
#3620
0!
0"
#3630
1!
1"
b10100 (
b111001 '
#3640
0!
0"
#3650
1!
1"
b10101 (
b100101 '
#3660
0!
0"
#3670
1!
1"
b10110 (
b10101 '
#3680
0!
0"
#3690
1!
1"
b10111 (
b1010 '
#3700
0!
0"
#3710
1!
1"
b11000 (
b10 '
#3720
0!
0"
#3730
1!
1"
b11001 (
b0 '
#3740
0!
0"
#3750
1!
1"
b11010 (
b10 '
#3760
0!
0"
#3770
1!
1"
b11011 (
b1010 '
#3780
0!
0"
#3790
1!
1"
b11100 (
b10101 '
#3800
0!
0"
#3810
1!
1"
b11101 (
b100101 '
#3820
0!
0"
#3830
1!
1"
b11110 (
b111001 '
#3840
0!
0"
#3850
1!
1"
b11111 (
b1001111 '
#3860
0!
0"
#3870
1!
1"
b0 (
b1100111 '
1%
1$
#3880
0!
0"
#3890
1!
1"
b1 (
b10000000 '
#3900
0!
0"
#3910
1!
1"
b10 (
b1100111 '
#3920
0!
0"
#3930
1!
1"
b11 (
b10011000 '
#3940
0!
0"
#3950
1!
1"
b100 (
b1001111 '
#3960
0!
0"
#3970
1!
1"
b101 (
b10110000 '
#3980
0!
0"
#3990
1!
1"
b110 (
b111001 '
#4000
0!
0"
#4010
1!
1"
b111 (
b11000110 '
#4020
0!
0"
#4030
1!
1"
b1000 (
b100101 '
#4040
0!
0"
#4050
1!
1"
b1001 (
b11011010 '
#4060
0!
0"
#4070
1!
1"
b1010 (
b10101 '
#4080
0!
0"
#4090
1!
1"
b1011 (
b11101010 '
#4100
0!
0"
#4110
1!
1"
b1100 (
b1010 '
#4120
0!
0"
#4130
1!
1"
b1101 (
b11110101 '
#4140
0!
0"
#4150
1!
1"
b1110 (
b10 '
#4160
0!
0"
#4170
1!
1"
b1111 (
b11111101 '
#4180
0!
0"
#4190
1!
1"
b10000 (
b0 '
#4200
0!
0"
#4210
1!
1"
b10001 (
b11111111 '
#4220
0!
0"
#4230
1!
1"
b10010 (
b10 '
#4240
0!
0"
#4250
1!
1"
b10011 (
b11111101 '
#4260
0!
0"
#4270
1!
1"
b10100 (
b1010 '
#4280
0!
0"
#4290
1!
1"
b10101 (
b11110101 '
#4300
0!
0"
#4310
1!
1"
b10110 (
b10101 '
#4320
0!
0"
#4330
1!
1"
b10111 (
b11101010 '
#4340
0!
0"
#4350
1!
1"
b11000 (
b100101 '
#4360
0!
0"
#4370
1!
1"
b11001 (
b11011010 '
#4380
0!
0"
#4390
1!
1"
b11010 (
b111001 '
#4400
0!
0"
#4410
1!
1"
b11011 (
b11000110 '
#4420
0!
0"
#4430
1!
1"
b11100 (
b1001111 '
#4440
0!
0"
#4450
1!
1"
b11101 (
b10110000 '
#4460
0!
0"
#4470
1!
1"
b11110 (
b1100111 '
#4480
0!
0"
#4490
1!
1"
b11111 (
b10011000 '
#4500
0!
0"
#4510
1!
1"
b0 (
b10000000 '
0%
#4520
0!
0"
#4530
1!
1"
b1 (
#4540
0!
0"
#4550
1!
1"
b10 (
b1000 '
#4560
0!
0"
#4570
1!
1"
b11 (
b10000 '
#4580
0!
0"
#4590
1!
1"
b100 (
b11000 '
#4600
0!
0"
#4610
1!
1"
b101 (
b100000 '
#4620
0!
0"
#4630
1!
1"
b110 (
b101000 '
#4640
0!
0"
#4650
1!
1"
b111 (
b110000 '
#4660
0!
0"
#4670
1!
1"
b1000 (
b111000 '
#4680
0!
0"
#4690
1!
1"
b1001 (
b1000000 '
#4700
0!
0"
#4710
1!
1"
b1010 (
b1001000 '
#4720
0!
0"
#4730
1!
1"
b1011 (
b1010000 '
#4740
0!
0"
#4750
1!
1"
b1100 (
b1011000 '
#4760
0!
0"
#4770
1!
1"
b1101 (
b1100000 '
#4780
0!
0"
#4790
1!
1"
b1110 (
b1101000 '
#4800
0!
0"
#4810
1!
1"
b1111 (
b1110000 '
#4820
0!
0"
#4830
1!
1"
b10000 (
b1111000 '
#4840
0!
0"
#4850
1!
1"
b10001 (
b10000000 '
#4860
0!
0"
#4870
1!
1"
b10010 (
b10000111 '
#4880
0!
0"
#4890
1!
1"
b10011 (
b10001111 '
#4900
0!
0"
#4910
1!
1"
b10100 (
b10010111 '
#4920
0!
0"
#4930
1!
1"
b10101 (
b10011111 '
#4940
0!
0"
#4950
1!
1"
b10110 (
b10100111 '
#4960
0!
0"
#4970
1!
1"
b10111 (
b10101111 '
#4980
0!
0"
#4990
1!
1"
b11000 (
b10110111 '
#5000
0!
0"
#5010
1!
1"
b11001 (
b10111111 '
#5020
0!
0"
#5030
1!
1"
b11010 (
b11000111 '
#5040
0!
0"
#5050
1!
1"
b11011 (
b11001111 '
#5060
0!
0"
#5070
1!
1"
b11100 (
b11010111 '
#5080
0!
0"
#5090
1!
1"
b11101 (
b11011111 '
#5100
0!
0"
#5110
1!
1"
b11110 (
b11100111 '
#5120
0!
0"
#5130
1!
1"
b11111 (
b11101111 '
#5140
0!
0"
#5150
1!
1"
b0 (
b11110111 '
#5160
0!
0"
#5170
1!
1"
b1 (
b0 '
#5180
0!
0"
#5190
1!
1"
b10 (
b1000 '
